{
    "isim": "Komiteler",
    "yetkiAlanlari": [
        {
           "isim": "addKomite",
           "gosterilenIsim": "Komite Ekleme",
           "aciklama": ""
        },
        {
           "isim": "editKomite",
           "gosterilenIsim": "Komite Düzenleme",
           "aciklama": ""
        },
        {
           "isim": "deleteKomite",
           "gosterilenIsim": "Komite Silme",
           "aciklama": ""
        }],
    "gosterilenIsim": "Komiteler",
    "aciklama": "Komite ekleme/düzenleme işlemleri"
}